Practical Statistics in Medicine with R - 19 Paired t-test
…
# present the results
summary_weight <- summary_weight %>% 
  mutate(across(everything(), round, 2)) %>%   # round to 3 decimal places
  pivot_longer(1:33, names_to = "Stats", values_to = "Values")  # long format

summary_weight

# A tibble: 33 × 2
   Stats               Values
   <chr>                <dbl>
 1 dif_weight_n         25   
 2 dif_weight_na         0   
 3 dif_weight_min      -30   
 4 dif_weight_q1        20   
 5 dif_weight_median    40   
 6 dif_weight_q3        70   
 7 dif_weight_max      103   
 8 dif_weight_mean      39.6 
 9 dif_weight_sd        32.3 
10 dif_weight_skewness  -0.16
# ℹ 23 more rows
…
