Practical Statistics in Medicine with R - 10 Data import, manipulation, and transformation
…
Now, R displays the last six rows of the data frame by default.

10.2 Basic data manipulations

10.2.1 Adding an unique identifier for each observation

A unique identifier for each observation is often useful for various data manipulation and analysis tasks. In R, we can add row numbers starting from 1 to the number of rows in our data frame using the rowid_to_column() function from the tibble package:

library(tibble)
dat <- rowid_to_column(dat)
dat

# A tibble: 30 × 5
   rowid sex     age   sbp    HR
   <int> <chr> <dbl> <dbl> <dbl>
 1     1 M        54   139    85
 2     2 F        47   151    84
 3     3 F        58   201   106
 4     4 M        NA   170    56
 5     5 F        60   123    55
 6     6 F        57   121    90
 7     7 M        54   119    85
 8     8 M        NA   100    92
 9     9 F        53   164    72
10    10 M        58   161   102
# ℹ 20 more rows

10.2.2 Renaming variables and cleaning names

library(dplyr)
dat <- rename(dat, 
               patient_ID = rowid,
               Heart.Rate = HR)
dat

# A tibble: 30 × 5
   patient_ID sex     age   sbp Heart.Rate
        <int> <chr> <dbl> <dbl>      <dbl>
 1          1 M        54   139         85
 2          2 F        47   151         84
 3          3 F        58   201        106
 4          4 M        NA   170         56
 5          5 F        60   123         55
 6          6 F        57   121         90
 7          7 M        54   119         85
 8          8 M        NA   100         92
 9          9 F        53   164         72
10         10 M        58   161        102
# ℹ 20 more rows

library(janitor)
dat <- clean_names(dat)
dat

# A tibble: 30 × 5
   patient_id sex     age   sbp heart_rate
        <int> <chr> <dbl> <dbl>      <dbl>
 1          1 M        54   139         85
 2          2 F        47   151         84
 3          3 F        58   201        106
 4          4 M        NA   170         56
 5          5 F        60   123         55
 6          6 F        57   121         90
 7          7 M        54   119         85
 8          8 M        NA   100         92
 9          9 F        53   164         72
10         10 M        58   161        102
# ℹ 20 more rows

10.2.3 Converting to the appropriate data type

We might have noticed that the categorical variable sex is coded as F (for females) and M (for males), so it is recognized of character type. We can use the factor() function to encode a variable as a factor:

dat$sex <- factor(dat$sex, levels = c("F", "M"), 
                  labels = c("female", "male"))
dat

# A tibble: 30 × 5
   patient_id sex      age   sbp heart_rate
        <int> <fct>  <dbl> <dbl>      <dbl>
 1          1 male      54   139         85
 2          2 female    47   151         84
 3          3 female    58   201        106
 4          4 male      NA   170         56
 5          5 female    60   123         55
 6          6 female    57   121         90
 7          7 male      54   119         85
 8          8 male      NA   100         92
 9          9 female    53   164         72
10         10 male      58   161        102
# ℹ 20 more rows
…
10.3.4 Creating new variables

Suppose we want to create a new variable representing the ratio of heart rate to systolic blood pressure (HR/sbp), which we will call shock index. We can achieve this by using the mutate() function as follows:

dat18 <- mutate(dat, shock_index = round(heart_rate / sbp, digits = 2))

dat18

# A tibble: 30 × 6
   patient_id sex      age   sbp heart_rate shock_index
        <int> <fct>  <dbl> <dbl>      <dbl>       <dbl>
 1          1 male      54   139         85        0.61
 2          2 female    47   151         84        0.56
 3          3 female    58   201        106        0.53
 4          4 male      NA   170         56        0.33
 5          5 female    60   123         55        0.45
 6          6 female    57   121         90        0.74
 7          7 male      54   119         85        0.71
 8          8 male      NA   100         92        0.92
 9          9 female    53   164         72        0.44
10         10 male      58   161        102        0.63
# ℹ 20 more rows

 INFO

By default, the mutate() function adds the new variable as the last column in the data frame.

Next, we want to categorize the new variable considering that normal values of this index range from 0.5 to 0.7 (beats/mmHg*min).

dat19 <- mutate(dat18,
                shock_index2 = cut(shock_index, breaks = c(-Inf, 0.5, 0.7, Inf),
                                   labels = c("low","normal","high"))
               )
dat19

# A tibble: 30 × 7
   patient_id sex      age   sbp heart_rate shock_index shock_index2
        <int> <fct>  <dbl> <dbl>      <dbl>       <dbl> <fct>       
 1          1 male      54   139         85        0.61 normal      
 2          2 female    47   151         84        0.56 normal      
 3          3 female    58   201        106        0.53 normal      
 4          4 male      NA   170         56        0.33 low         
 5          5 female    60   123         55        0.45 low         
 6          6 female    57   121         90        0.74 high        
 7          7 male      54   119         85        0.71 high        
 8          8 male      NA   100         92        0.92 high        
 9          9 female    53   164         72        0.44 low         
10         10 male      58   161        102        0.63 normal      
# ℹ 20 more rows
…
Alternatively we can use the %in% operator. This operator helps us to easily create multiple OR arguments:

dat |> 
  mutate(shock_index = round(heart_rate / sbp, digits = 2),
         shock_index2 = cut(shock_index, breaks = c(-Inf, 0.5, 0.7, Inf),
                            labels = c("low","normal","high"))
  ) |> 
  filter(shock_index2 %in% c("low", "high"))

# A tibble: 21 × 7
   patient_id sex      age   sbp heart_rate shock_index shock_index2
        <int> <fct>  <dbl> <dbl>      <dbl>       <dbl> <fct>       
 1          4 male      NA   170         56        0.33 low         
 2          5 female    60   123         55        0.45 low         
 3          6 female    57   121         90        0.74 high        
 4          7 male      54   119         85        0.71 high        
 5          8 male      NA   100         92        0.92 high        
 6          9 female    53   164         72        0.44 low         
 7         13 female    57   118         89        0.75 high        
 8         14 male      52   130        106        0.82 high        
 9         15 female    50   109        142        1.3  high        
10         16 male      48    92        122        1.33 high        
# ℹ 11 more rows
…
